{
  "widgetId": "infor.ln.demo.project.activity",
  "type": "inline",
  "framework": "angular",
  "name": "Widget LN demo project activity",
  "version": "1.0",
  "category": "application",
  "moduleName": "widget",
  "settingsUI": "metadata",
  "settings": [
    {
      "name": "messagetype",
      "type": "string",
      "defaultValue": "inforBusinessContext",
      "labelId": "Message type"
    },
    {
      "name": "user",
      "type": "string",
      "defaultValue": "ion121",
      "labelId": "User"
    },
    {
      "name": "password",
      "type": "string",
      "defaultValue": "3nd0fw$7ch",
      "labelId": "Password"
    },
    {
      "name": "webservice",
      "type": "string",
      "defaultValue": "/LN_ANON/c4ws/services/GenericQuery/LN_121",
      "labelId": "Generic Query Web Service URL"
    },
    {
      "name": "company",
      "type": "string",
      "defaultValue": "121",
      "labelId": "Company"
    },
    {
      "name": "logicalid",
      "type": "string",
      "defaultValue": "lid://infor.ln.infor_ln_121",
      "labelId": "LogicalId"
    },
    {
      "name": "sessionid",
      "type": "string",
      "defaultValue": "lid://infor.ln.infor_ln_121",
      "labelId": "Session Id"
    }
  ],
  "localization": {
    "en-US": {
      "widgetTitle": "Project Activity",
      "widgetDescription": "Project Activity",
      "drillback": "DrillBack",
      "nodata": "No data found on Project Activity",
      "nodatasubmessage": "Please check Project Activity Form in ERP LN",
      "error": "An unexpected error occurred",
      "errorsubmessage":
        "Please check widget configuration or ION API is not responding"
    }
  }
}
